Sem4/Microelectronics/Labs/Lab13/src/lab13.vcd
$date
     May 21, 2025       15:33:22
$end

$version
 SystemC 2.3.3-Accellera --- Apr 29 2025 14:23:28
$end

$timescale
     1 ns
$end

$scope module SystemC $end
$var wire    1  aaaaa  clk       $end
$var wire    1  aaaab  reset       $end
$var wire    1  aaaac  start       $end
$var wire    1  aaaad   stop       $end
$var wire    6  aaaae  time [5:0]  $end
$upscope $end
$enddefinitions  $end

$comment
All initial values are dumped below at time 0 sec = 0 timescale units.
$end

$dumpvars
1aaaaa
0aaaab
0aaaac
0aaaad
b0 aaaae
$end

#2
0aaaaa

#5
1aaaaa

#7
0aaaaa

#10
1aaaaa
1aaaac

#12
0aaaaa

#15
1aaaaa
0aaaac
b1 aaaae

#17
0aaaaa

#20
1aaaaa
b10 aaaae

#22
0aaaaa

#25
1aaaaa
1aaaad

#27
0aaaaa

#30
1aaaaa
0aaaad

#32
0aaaaa

#35
1aaaaa
1aaaac

#37
0aaaaa

#40
1aaaaa
0aaaac
b11 aaaae

#42
0aaaaa

#45
1aaaaa
b100 aaaae

#47
0aaaaa

#50
1aaaaa
1aaaad

#52
0aaaaa

#55
1aaaaa
0aaaad

#57
0aaaaa

#60
1aaaaa
1aaaac

#62
0aaaaa

#65
1aaaaa
0aaaac
b101 aaaae

#67
0aaaaa

#70
1aaaaa
b110 aaaae

#72
0aaaaa

#75
1aaaaa
1aaaad

#77
0aaaaa

#80
1aaaaa
0aaaad

#82
0aaaaa

#85
1aaaaa
1aaaac

#87
0aaaaa

#90
1aaaaa
0aaaac
b111 aaaae

#92
0aaaaa

#95
1aaaaa
b1000 aaaae

#97
0aaaaa

#100
1aaaaa
1aaaad

#102
0aaaaa

#105
1aaaaa
0aaaad

#107
0aaaaa

#110
1aaaaa
1aaaac

#112
0aaaaa

#115
1aaaaa
0aaaac
b1001 aaaae

#117
0aaaaa

#120
1aaaaa
b1010 aaaae

#122
0aaaaa

#125
1aaaaa
1aaaad

#127
0aaaaa

#130
1aaaaa
0aaaad

#132
0aaaaa

#135
1aaaaa
1aaaac

#137
0aaaaa

#140
1aaaaa
0aaaac
b1011 aaaae

#142
0aaaaa

#145
1aaaaa
b1100 aaaae

#147
0aaaaa

#150
1aaaaa
1aaaad

#152
0aaaaa

#155
1aaaaa
0aaaad

#157
0aaaaa

#160
1aaaaa
1aaaac

#162
0aaaaa

#165
1aaaaa
0aaaac
b1101 aaaae

#167
0aaaaa

#170
1aaaaa
b1110 aaaae

#172
0aaaaa

#175
1aaaaa
1aaaad

#177
0aaaaa

#180
1aaaaa
0aaaad

#182
0aaaaa

#185
1aaaaa
1aaaac

#187
0aaaaa

#190
1aaaaa
0aaaac
b1111 aaaae

#192
0aaaaa

#195
1aaaaa
b10000 aaaae

#197
0aaaaa

#200
1aaaaa
1aaaad

#202
0aaaaa

#205
1aaaaa
0aaaad

#207
0aaaaa

#210
1aaaaa
1aaaac

#212
0aaaaa

#215
1aaaaa
0aaaac
b10001 aaaae

#217
0aaaaa

#220
1aaaaa
b10010 aaaae

#222
0aaaaa

#225
1aaaaa
1aaaad

#227
0aaaaa

#230
1aaaaa
0aaaad

#232
0aaaaa

#235
1aaaaa
1aaaac

#237
0aaaaa

#240
1aaaaa
0aaaac
b10011 aaaae

#242
0aaaaa

#245
1aaaaa
b10100 aaaae

#247
0aaaaa

#250
1aaaaa
1aaaad

#252
0aaaaa

#255
1aaaaa
0aaaad

#257
0aaaaa

#260
1aaaaa
1aaaac

#262
0aaaaa

#265
1aaaaa
0aaaac
b10101 aaaae

#267
0aaaaa

#270
1aaaaa
b10110 aaaae

#272
0aaaaa

#275
1aaaaa
1aaaad

#277
0aaaaa

#280
1aaaaa
0aaaad

#282
0aaaaa

#285
1aaaaa
1aaaac

#287
0aaaaa

#290
1aaaaa
0aaaac
b10111 aaaae

#292
0aaaaa

#295
1aaaaa
b11000 aaaae

#297
0aaaaa

#300
1aaaaa
1aaaad

#302
0aaaaa

#305
1aaaaa
0aaaad

#307
0aaaaa

#310
1aaaaa
1aaaac

#312
0aaaaa

#315
1aaaaa
0aaaac
b11001 aaaae

#317
0aaaaa

#320
1aaaaa
b11010 aaaae

#322
0aaaaa

#325
1aaaaa
1aaaad

#327
0aaaaa

#330
1aaaaa
0aaaad

#332
0aaaaa

#335
1aaaaa
1aaaac

#337
0aaaaa

#340
1aaaaa
0aaaac
b11011 aaaae

#342
0aaaaa

#345
1aaaaa
b11100 aaaae

#347
0aaaaa

#350
1aaaaa
1aaaad

#352
0aaaaa

#355
1aaaaa
0aaaad

#357
0aaaaa

#360
1aaaaa
1aaaac

#362
0aaaaa

#365
1aaaaa
0aaaac
b11101 aaaae

#367
0aaaaa

#370
1aaaaa
b11110 aaaae

#372
0aaaaa

#375
1aaaaa
1aaaad

#377
0aaaaa

#380
1aaaaa
0aaaad

#382
0aaaaa

#385
1aaaaa
1aaaac

#387
0aaaaa

#390
1aaaaa
0aaaac
b11111 aaaae

#392
0aaaaa

#395
1aaaaa
b100000 aaaae

#397
0aaaaa

#400
1aaaaa
1aaaad

#402
0aaaaa

#405
1aaaaa
0aaaad

#407
0aaaaa

#410
1aaaaa
1aaaac

#412
0aaaaa

#415
1aaaaa
0aaaac
b100001 aaaae

#417
0aaaaa

#420
1aaaaa
b100010 aaaae

#422
0aaaaa

#425
1aaaaa
1aaaad

#427
0aaaaa

#430
1aaaaa
0aaaad

#432
0aaaaa

#435
1aaaaa
1aaaac

#437
0aaaaa

#440
1aaaaa
0aaaac
b100011 aaaae

#442
0aaaaa

#445
1aaaaa
b100100 aaaae

#447
0aaaaa

#450
1aaaaa
1aaaad

#452
0aaaaa

#455
1aaaaa
0aaaad

#457
0aaaaa

#460
1aaaaa
1aaaac

#462
0aaaaa

#465
1aaaaa
0aaaac
b100101 aaaae

#467
0aaaaa

#470
1aaaaa
b100110 aaaae

#472
0aaaaa

#475
1aaaaa
1aaaad

#477
0aaaaa

#480
1aaaaa
0aaaad

#482
0aaaaa

#485
1aaaaa
1aaaac

#487
0aaaaa

#490
1aaaaa
0aaaac
b100111 aaaae

#492
0aaaaa

#495
1aaaaa
b101000 aaaae

#497
0aaaaa

#500
1aaaaa
1aaaad

#502
0aaaaa

#505
1aaaaa
0aaaad

#507
0aaaaa

#510
1aaaaa
1aaaac

#512
0aaaaa

#515
1aaaaa
0aaaac
b101001 aaaae

#517
0aaaaa

#520
1aaaaa
b101010 aaaae

#522
0aaaaa

#525
1aaaaa
1aaaad

#527
0aaaaa

#530
1aaaaa
0aaaad

#532
0aaaaa

#535
1aaaaa
1aaaac

#537
0aaaaa

#540
1aaaaa
0aaaac
b101011 aaaae

#542
0aaaaa

#545
1aaaaa
b101100 aaaae

#547
0aaaaa

#550
1aaaaa
1aaaad

#552
0aaaaa

#555
1aaaaa
0aaaad

#557
0aaaaa

#560
1aaaaa
1aaaac

#562
0aaaaa

#565
1aaaaa
0aaaac
b101101 aaaae

#567
0aaaaa

#570
1aaaaa
b101110 aaaae

#572
0aaaaa

#575
1aaaaa
1aaaad

#577
0aaaaa

#580
1aaaaa
0aaaad

#582
0aaaaa

#585
1aaaaa
1aaaac

#587
0aaaaa

#590
1aaaaa
0aaaac
b101111 aaaae

#592
0aaaaa

#595
1aaaaa
b110000 aaaae

#597
0aaaaa

#600
1aaaaa
1aaaad

#602
0aaaaa

#605
1aaaaa
0aaaad

#607
0aaaaa

#610
1aaaaa
1aaaac

#612
0aaaaa

#615
1aaaaa
0aaaac
b110001 aaaae

#617
0aaaaa

#620
1aaaaa
b110010 aaaae

#622
0aaaaa

#625
1aaaaa
1aaaad

#627
0aaaaa

#630
1aaaaa
0aaaad

#632
0aaaaa

#635
1aaaaa
1aaaac

#637
0aaaaa

#640
1aaaaa
0aaaac
b110011 aaaae

#642
0aaaaa

#645
1aaaaa
b110100 aaaae

#647
0aaaaa

#650
1aaaaa
1aaaad

#652
0aaaaa

#655
1aaaaa
0aaaad

#657
0aaaaa

#660
1aaaaa
1aaaac

#662
0aaaaa

#665
1aaaaa
0aaaac
b110101 aaaae

#667
0aaaaa

#670
1aaaaa
b110110 aaaae

#672
0aaaaa

#675
1aaaaa
1aaaad

#677
0aaaaa

#680
1aaaaa
0aaaad

#682
0aaaaa

#685
1aaaaa
1aaaac

#687
0aaaaa

#690
1aaaaa
0aaaac
b110111 aaaae

#692
0aaaaa

#695
1aaaaa
b111000 aaaae

#697
0aaaaa

#700
1aaaaa
1aaaad

#702
0aaaaa

#705
1aaaaa
0aaaad

#707
0aaaaa

#710
1aaaaa
1aaaac

#712
0aaaaa

#715
1aaaaa
0aaaac
b111001 aaaae

#717
0aaaaa

#720
1aaaaa
b111010 aaaae

#722
0aaaaa

#725
1aaaaa
1aaaad

#727
0aaaaa

#730
1aaaaa
0aaaad

#732
0aaaaa

#735
1aaaaa
1aaaac

#737
0aaaaa

#740
1aaaaa
0aaaac
b111011 aaaae

#742
0aaaaa

#745
1aaaaa
b111100 aaaae

#747
0aaaaa

#750
1aaaaa
1aaaad

#752
0aaaaa

#755
1aaaaa
0aaaad

#757
0aaaaa

#760
1aaaaa
1aaaac

#762
0aaaaa

#765
1aaaaa
0aaaac
b0 aaaae

#767
0aaaaa

#770
1aaaaa
b1 aaaae

#772
0aaaaa

#775
1aaaaa
1aaaad

#777
0aaaaa

#780
1aaaaa
0aaaad

#782
0aaaaa

#785
1aaaaa
1aaaac

#787
0aaaaa

#790
1aaaaa
0aaaac
b10 aaaae

#792
0aaaaa

#795
1aaaaa
b11 aaaae

#797
0aaaaa

#800
1aaaaa
1aaaad

#802
0aaaaa

#805
1aaaaa
0aaaad

#807
0aaaaa

#810
1aaaaa
1aaaac

#812
0aaaaa

#815
1aaaaa
0aaaac
b100 aaaae

#817
0aaaaa

#820
1aaaaa
b101 aaaae

#822
0aaaaa

#825
1aaaaa
1aaaad

#827
0aaaaa

#830
1aaaaa
0aaaad

#832
0aaaaa

#835
1aaaaa
1aaaac

#837
0aaaaa

#840
1aaaaa
0aaaac
b110 aaaae

#842
0aaaaa

#845
1aaaaa
b111 aaaae

#847
0aaaaa

#850
1aaaaa
1aaaad

#852
0aaaaa

#855
1aaaaa
0aaaad

#857
0aaaaa

#860
1aaaaa
1aaaac

#862
0aaaaa

#865
1aaaaa
0aaaac
b1000 aaaae

#867
0aaaaa

#870
1aaaaa
b1001 aaaae

#872
0aaaaa

#875
1aaaaa
1aaaad

#877
0aaaaa

#880
1aaaaa
0aaaad

#882
0aaaaa

#885
1aaaaa
1aaaac

#887
0aaaaa

#890
1aaaaa
0aaaac
b1010 aaaae

#892
0aaaaa

#895
1aaaaa
b1011 aaaae

#897
0aaaaa

#900
1aaaaa
1aaaad

#902
0aaaaa

#905
1aaaaa
0aaaad

#907
0aaaaa

#910
1aaaaa
1aaaac

#912
0aaaaa

#915
1aaaaa
0aaaac
b1100 aaaae

#917
0aaaaa

#920
1aaaaa
b1101 aaaae

#922
0aaaaa

#925
1aaaaa
1aaaad

#927
0aaaaa

#930
1aaaaa
0aaaad

#932
0aaaaa

#935
1aaaaa
1aaaac

#937
0aaaaa

#940
1aaaaa
0aaaac
b1110 aaaae

#942
0aaaaa

#945
1aaaaa
b1111 aaaae

#947
0aaaaa

#950
1aaaaa
1aaaad

#952
0aaaaa

#955
1aaaaa
0aaaad

#957
0aaaaa

#960
1aaaaa
1aaaac

#962
0aaaaa

#965
1aaaaa
0aaaac
b10000 aaaae

#967
0aaaaa

#970
1aaaaa
b10001 aaaae

#972
0aaaaa

#975
1aaaaa
1aaaad

#977
0aaaaa

#980
1aaaaa
0aaaad

#982
0aaaaa

#985
1aaaaa
1aaaac

#987
0aaaaa

#990
1aaaaa
0aaaac
b10010 aaaae

#992
0aaaaa

#995
1aaaaa
b10011 aaaae

#997
0aaaaa

#1000
1aaaaa
1aaaad

#1002
0aaaaa

#1005
1aaaaa
0aaaad

#1007
0aaaaa

#1010
1aaaaa
1aaaac

#1012
0aaaaa

#1015
1aaaaa
0aaaac
b10100 aaaae

#1017
0aaaaa

#1020
1aaaaa
b10101 aaaae

#1022
0aaaaa

#1025
1aaaaa
1aaaad

#1027
0aaaaa

#1030
1aaaaa
0aaaad

#1032
0aaaaa

#1035
1aaaaa
1aaaac

#1037
0aaaaa

#1040
1aaaaa
0aaaac
b10110 aaaae

#1042
0aaaaa

#1045
1aaaaa
b10111 aaaae

#1047
0aaaaa

#1050
1aaaaa
1aaaad

#1052
0aaaaa

#1055
1aaaaa
0aaaad

#1057
0aaaaa

#1060
1aaaaa
1aaaac

#1062
0aaaaa

#1065
1aaaaa
0aaaac
b11000 aaaae

#1067
0aaaaa

#1070
1aaaaa
b11001 aaaae

#1072
0aaaaa

#1075
1aaaaa
1aaaad

#1077
0aaaaa

#1080
1aaaaa
0aaaad

#1082
0aaaaa

#1085
1aaaaa
1aaaac

#1087
0aaaaa

#1090
1aaaaa
0aaaac
b11010 aaaae

#1092
0aaaaa

#1095
1aaaaa
b11011 aaaae

#1097
0aaaaa

#1100
1aaaaa
1aaaad

#1102
0aaaaa

#1105
1aaaaa
0aaaad

#1107
0aaaaa

#1110
1aaaaa
1aaaac

#1112
0aaaaa

#1115
1aaaaa
0aaaac
b11100 aaaae

#1117
0aaaaa

#1120
1aaaaa
b11101 aaaae

#1122
0aaaaa

#1125
1aaaaa
1aaaad

#1127
0aaaaa

#1130
1aaaaa
0aaaad

#1132
0aaaaa

#1135
1aaaaa
1aaaac

#1137
0aaaaa

#1140
1aaaaa
0aaaac
b11110 aaaae

#1142
0aaaaa

#1145
1aaaaa
b11111 aaaae

#1147
0aaaaa

#1150
1aaaaa
1aaaad

#1152
0aaaaa

#1155
1aaaaa
0aaaad

#1157
0aaaaa

#1160
1aaaaa
1aaaac

#1162
0aaaaa

#1165
1aaaaa
0aaaac
b100000 aaaae

#1167
0aaaaa

#1170
1aaaaa
b100001 aaaae

#1172
0aaaaa

#1175
1aaaaa
1aaaad

#1177
0aaaaa

#1180
1aaaaa
0aaaad

#1182
0aaaaa

#1185
1aaaaa
1aaaac

#1187
0aaaaa

#1190
1aaaaa
0aaaac
b100010 aaaae

#1192
0aaaaa

#1195
1aaaaa
b100011 aaaae

#1197
0aaaaa

#1200
1aaaaa
1aaaad

#1202
0aaaaa

#1205
1aaaaa
0aaaad

#1207
0aaaaa

#1210
1aaaaa
1aaaac

#1212
0aaaaa

#1215
1aaaaa
0aaaac
b100100 aaaae

#1217
0aaaaa

#1220
1aaaaa
b100101 aaaae

#1222
0aaaaa

#1225
1aaaaa
1aaaad

#1227
0aaaaa

#1230
1aaaaa
0aaaad

#1232
0aaaaa

#1235
1aaaaa
1aaaac

#1237
0aaaaa

#1240
1aaaaa
0aaaac
b100110 aaaae

#1242
0aaaaa

#1245
1aaaaa
b100111 aaaae

#1247
0aaaaa

#1250
1aaaaa
1aaaad

#1252
0aaaaa

#1255
1aaaaa
0aaaad

#1257
0aaaaa

#1260
1aaaaa
1aaaac

#1262
0aaaaa

#1265
1aaaaa
0aaaac
b101000 aaaae

#1267
0aaaaa

#1270
1aaaaa
b101001 aaaae

#1272
0aaaaa

#1275
1aaaaa
1aaaad

#1277
0aaaaa

#1280
1aaaaa
0aaaad

#1282
0aaaaa

#1285
1aaaaa
1aaaac

#1287
0aaaaa

#1290
1aaaaa
0aaaac
b101010 aaaae

#1292
0aaaaa

#1295
1aaaaa
b101011 aaaae

#1297
0aaaaa

#1300
1aaaaa
1aaaad

#1302
0aaaaa

#1305
1aaaaa
0aaaad

#1307
0aaaaa

#1310
1aaaaa
1aaaac

#1312
0aaaaa

#1315
1aaaaa
0aaaac
b101100 aaaae

#1317
0aaaaa

#1320
1aaaaa
b101101 aaaae

#1322
0aaaaa

#1325
1aaaaa
1aaaad

#1327
0aaaaa

#1330
1aaaaa
0aaaad

#1332
0aaaaa

#1335
1aaaaa
1aaaac

#1337
0aaaaa

#1340
1aaaaa
0aaaac
b101110 aaaae

#1342
0aaaaa

#1345
1aaaaa
b101111 aaaae

#1347
0aaaaa

#1350
1aaaaa
1aaaad

#1352
0aaaaa

#1355
1aaaaa
0aaaad

#1357
0aaaaa

#1360
1aaaaa
1aaaac

#1362
0aaaaa

#1365
1aaaaa
0aaaac
b110000 aaaae

#1367
0aaaaa

#1370
1aaaaa
b110001 aaaae

#1372
0aaaaa

#1375
1aaaaa
1aaaad

#1377
0aaaaa

#1380
1aaaaa
0aaaad

#1382
0aaaaa

#1385
1aaaaa
1aaaac

#1387
0aaaaa

#1390
1aaaaa
0aaaac
b110010 aaaae

#1392
0aaaaa

#1395
1aaaaa
b110011 aaaae

#1397
0aaaaa

#1400
1aaaaa
1aaaad

#1402
0aaaaa

#1405
1aaaaa
0aaaad

#1407
0aaaaa

#1410
1aaaaa
1aaaac

#1412
0aaaaa

#1415
1aaaaa
0aaaac
b110100 aaaae

#1417
0aaaaa

#1420
1aaaaa
b110101 aaaae

#1422
0aaaaa

#1425
1aaaaa
1aaaad

#1427
0aaaaa

#1430
1aaaaa
0aaaad

#1432
0aaaaa

#1435
1aaaaa
1aaaac

#1437
0aaaaa

#1440
1aaaaa
0aaaac
b110110 aaaae

#1442
0aaaaa

#1445
1aaaaa
b110111 aaaae

#1447
0aaaaa

#1450
1aaaaa
1aaaad

#1452
0aaaaa

#1455
1aaaaa
0aaaad

#1457
0aaaaa

#1460
1aaaaa
1aaaac

#1462
0aaaaa

#1465
1aaaaa
0aaaac
b111000 aaaae

#1467
0aaaaa

#1470
1aaaaa
b111001 aaaae

#1472
0aaaaa

#1475
1aaaaa
1aaaad

#1477
0aaaaa

#1480
1aaaaa
0aaaad

#1482
0aaaaa

#1485
1aaaaa
1aaaac

#1487
0aaaaa

#1490
1aaaaa
0aaaac
b111010 aaaae

#1492
0aaaaa

#1495
1aaaaa
b111011 aaaae

#1497
0aaaaa

#1500
1aaaaa
1aaaad

#1502
0aaaaa

#1505
1aaaaa
0aaaad

#1507
0aaaaa

#1510
1aaaaa
1aaaac

#1512
0aaaaa

#1515
1aaaaa
0aaaac
b111100 aaaae

#1517
0aaaaa

#1520
1aaaaa
b0 aaaae

#1522
0aaaaa

#1525
1aaaaa
1aaaad

#1527
0aaaaa

#1530
1aaaaa
0aaaad

#1532
0aaaaa

#1535
1aaaaa
1aaaac

#1537
0aaaaa

#1540
1aaaaa
0aaaac
b1 aaaae

#1542
0aaaaa

#1545
1aaaaa
b10 aaaae

#1547
0aaaaa

#1550
1aaaaa
1aaaad

#1552
0aaaaa

#1555
1aaaaa
0aaaad

#1557
0aaaaa

#1560
1aaaaa
1aaaac

#1562
0aaaaa

#1565
1aaaaa
0aaaac
b11 aaaae

#1567
0aaaaa

#1570
1aaaaa
b100 aaaae

#1572
0aaaaa

#1575
1aaaaa
1aaaad

#1577
0aaaaa

#1580
1aaaaa
0aaaad

#1582
0aaaaa

#1585
1aaaaa
1aaaac

#1587
0aaaaa

#1590
1aaaaa
0aaaac
b101 aaaae

#1592
0aaaaa

#1595
1aaaaa
b110 aaaae

#1597
0aaaaa

#1600
1aaaaa
1aaaad

#1602
0aaaaa

#1605
1aaaaa
0aaaad

#1607
0aaaaa

#1610
1aaaaa
1aaaac

#1612
0aaaaa

#1615
1aaaaa
0aaaac
b111 aaaae

#1617
0aaaaa

#1620
1aaaaa
b1000 aaaae

#1622
0aaaaa

#1625
1aaaaa
1aaaad

#1627
0aaaaa

#1630
1aaaaa
0aaaad

#1632
0aaaaa

#1635
1aaaaa
1aaaac

#1637
0aaaaa

#1640
1aaaaa
0aaaac
b1001 aaaae

#1642
0aaaaa

#1645
1aaaaa
b1010 aaaae

#1647
0aaaaa

#1650
1aaaaa
1aaaad

#1652
0aaaaa

#1655
1aaaaa
0aaaad

#1657
0aaaaa

#1660
1aaaaa
1aaaac

#1662
0aaaaa

#1665
1aaaaa
0aaaac
b1011 aaaae

#1667
0aaaaa

#1670
1aaaaa
b1100 aaaae

#1672
0aaaaa

#1675
1aaaaa
1aaaad

#1677
0aaaaa

#1680
1aaaaa
0aaaad

#1682
0aaaaa

#1685
1aaaaa
1aaaac

#1687
0aaaaa

#1690
1aaaaa
0aaaac
b1101 aaaae

#1692
0aaaaa

#1695
1aaaaa
b1110 aaaae

#1697
0aaaaa

#1700
1aaaaa
1aaaad

#1702
0aaaaa

#1705
1aaaaa
0aaaad

#1707
0aaaaa

#1710
1aaaaa
1aaaac

#1712
0aaaaa

#1715
1aaaaa
0aaaac
b1111 aaaae

#1717
0aaaaa

#1720
1aaaaa
b10000 aaaae

#1722
0aaaaa

#1725
1aaaaa
1aaaad

#1727
0aaaaa

#1730
1aaaaa
0aaaad

#1732
0aaaaa

#1735
1aaaaa
1aaaac

#1737
0aaaaa

#1740
1aaaaa
0aaaac
b10001 aaaae

#1742
0aaaaa

#1745
1aaaaa
b10010 aaaae

#1747
0aaaaa

#1750
1aaaaa
1aaaad

#1752
0aaaaa

#1755
1aaaaa
0aaaad

#1757
0aaaaa

#1760
1aaaaa
1aaaac

#1762
0aaaaa

#1765
1aaaaa
0aaaac
b10011 aaaae

#1767
0aaaaa

#1770
1aaaaa
b10100 aaaae

#1772
0aaaaa

#1775
1aaaaa
1aaaad

#1777
0aaaaa

#1780
1aaaaa
0aaaad

#1782
0aaaaa

#1785
1aaaaa
1aaaac

#1787
0aaaaa

#1790
1aaaaa
0aaaac
b10101 aaaae

#1792
0aaaaa

#1795
1aaaaa
b10110 aaaae

#1797
0aaaaa

#1800
1aaaaa
1aaaad

#1802
0aaaaa

#1805
1aaaaa
0aaaad

#1807
0aaaaa

#1810
1aaaaa
1aaaac

#1812
0aaaaa

#1815
1aaaaa
0aaaac
b10111 aaaae

#1817
0aaaaa

#1820
1aaaaa
b11000 aaaae

#1822
0aaaaa

#1825
1aaaaa
1aaaad

#1827
0aaaaa

#1830
1aaaaa
0aaaad

#1832
0aaaaa

#1835
1aaaaa
1aaaac

#1837
0aaaaa

#1840
1aaaaa
0aaaac
b11001 aaaae

#1842
0aaaaa

#1845
1aaaaa
b11010 aaaae

#1847
0aaaaa

#1850
1aaaaa
1aaaad

#1852
0aaaaa

#1855
1aaaaa
0aaaad

#1857
0aaaaa

#1860
1aaaaa
1aaaac

#1862
0aaaaa

#1865
1aaaaa
0aaaac
b11011 aaaae

#1867
0aaaaa

#1870
1aaaaa
b11100 aaaae

#1872
0aaaaa

#1875
1aaaaa
1aaaad

#1877
0aaaaa

#1880
1aaaaa
0aaaad

#1882
0aaaaa

#1885
1aaaaa
1aaaac

#1887
0aaaaa

#1890
1aaaaa
0aaaac
b11101 aaaae

#1892
0aaaaa

#1895
1aaaaa
b11110 aaaae

#1897
0aaaaa

#1900
1aaaaa
1aaaad

#1902
0aaaaa

#1905
1aaaaa
0aaaad

#1907
0aaaaa

#1910
1aaaaa
1aaaac

#1912
0aaaaa

#1915
1aaaaa
0aaaac
b11111 aaaae

#1917
0aaaaa

#1920
1aaaaa
b100000 aaaae

#1922
0aaaaa

#1925
1aaaaa
1aaaad

#1927
0aaaaa

#1930
1aaaaa
0aaaad

#1932
0aaaaa

#1935
1aaaaa
1aaaac

#1937
0aaaaa

#1940
1aaaaa
0aaaac
b100001 aaaae

#1942
0aaaaa

#1945
1aaaaa
b100010 aaaae

#1947
0aaaaa

#1950
1aaaaa
1aaaad

#1952
0aaaaa

#1955
1aaaaa
0aaaad

#1957
0aaaaa

#1960
1aaaaa
1aaaac

#1962
0aaaaa

#1965
1aaaaa
0aaaac
b100011 aaaae

#1967
0aaaaa

#1970
1aaaaa
b100100 aaaae

#1972
0aaaaa

#1975
1aaaaa
1aaaad

#1977
0aaaaa

#1980
1aaaaa
0aaaad

#1982
0aaaaa

#1985
1aaaaa
1aaaac

#1987
0aaaaa

#1990
1aaaaa
0aaaac
b100101 aaaae

#1992
0aaaaa

#1995
1aaaaa
b100110 aaaae

#1997
0aaaaa

#2000
1aaaaa
1aaaad

#2002
0aaaaa

#2005
1aaaaa
0aaaad

#2007
0aaaaa

#2010
1aaaaa
1aaaac

#2012
0aaaaa

#2015
1aaaaa
0aaaac
b100111 aaaae

#2017
0aaaaa

#2020
1aaaaa
b101000 aaaae

#2022
0aaaaa

#2025
1aaaaa
1aaaad

#2027
0aaaaa

#2030
1aaaaa
0aaaad

#2032
0aaaaa

#2035
1aaaaa
1aaaac

#2037
0aaaaa

#2040
1aaaaa
0aaaac
b101001 aaaae

#2042
0aaaaa

#2045
1aaaaa
b101010 aaaae

#2047
0aaaaa

#2050
1aaaaa
1aaaad

#2052
0aaaaa

#2055
1aaaaa
0aaaad

#2057
0aaaaa

#2060
1aaaaa
1aaaac

#2062
0aaaaa

#2065
1aaaaa
0aaaac
b101011 aaaae

#2067
0aaaaa

#2070
1aaaaa
b101100 aaaae

#2072
0aaaaa

#2075
1aaaaa
1aaaad

#2077
0aaaaa

#2080
1aaaaa
0aaaad

#2082
0aaaaa

#2085
1aaaaa
1aaaac

#2087
0aaaaa

#2090
1aaaaa
0aaaac
b101101 aaaae

#2092
0aaaaa

#2095
1aaaaa
b101110 aaaae

#2097
0aaaaa

#2100
1aaaaa
1aaaad

#2102
0aaaaa

#2105
1aaaaa
0aaaad

#2107
0aaaaa

#2110
1aaaaa
1aaaac

#2112
0aaaaa

#2115
1aaaaa
0aaaac
b101111 aaaae

#2117
0aaaaa

#2120
1aaaaa
b110000 aaaae

#2122
0aaaaa

#2125
1aaaaa
1aaaad

#2127
0aaaaa

#2130
1aaaaa
0aaaad

#2132
0aaaaa

#2135
1aaaaa
1aaaac

#2137
0aaaaa

#2140
1aaaaa
0aaaac
b110001 aaaae

#2142
0aaaaa

#2145
1aaaaa
b110010 aaaae

#2147
0aaaaa

#2150
1aaaaa
1aaaad

#2152
0aaaaa

#2155
1aaaaa
0aaaad

#2157
0aaaaa

#2160
1aaaaa
1aaaac

#2162
0aaaaa

#2165
1aaaaa
0aaaac
b110011 aaaae

#2167
0aaaaa

#2170
1aaaaa
b110100 aaaae

#2172
0aaaaa

#2175
1aaaaa
1aaaad

#2177
0aaaaa

#2180
1aaaaa
0aaaad

#2182
0aaaaa

#2185
1aaaaa
1aaaac

#2187
0aaaaa

#2190
1aaaaa
0aaaac
b110101 aaaae

#2192
0aaaaa

#2195
1aaaaa
b110110 aaaae

#2197
0aaaaa

#2200
1aaaaa
1aaaad

#2202
0aaaaa

#2205
1aaaaa
0aaaad

#2207
0aaaaa

#2210
1aaaaa
1aaaac

#2212
0aaaaa

#2215
1aaaaa
0aaaac
b110111 aaaae

#2217
0aaaaa

#2220
1aaaaa
b111000 aaaae

#2222
0aaaaa

#2225
1aaaaa
1aaaad

#2227
0aaaaa

#2230
1aaaaa
0aaaad

#2232
0aaaaa

#2235
1aaaaa
1aaaac

#2237
0aaaaa

#2240
1aaaaa
0aaaac
b111001 aaaae

#2242
0aaaaa

#2245
1aaaaa
b111010 aaaae

#2247
0aaaaa

#2250
1aaaaa
1aaaad

#2252
0aaaaa

#2255
1aaaaa
0aaaad

#2257
0aaaaa

#2260
1aaaaa
1aaaac

#2262
0aaaaa

#2265
1aaaaa
0aaaac
b111011 aaaae

#2267
0aaaaa

#2270
1aaaaa
b111100 aaaae

#2272
0aaaaa

#2275
1aaaaa
1aaaad

#2277
0aaaaa

#2280
1aaaaa
0aaaad

#2282
0aaaaa

#2285
1aaaaa
1aaaac

#2287
0aaaaa

#2290
1aaaaa
0aaaac
b0 aaaae

#2292
0aaaaa

#2295
1aaaaa
b1 aaaae

#2297
0aaaaa

#2300
1aaaaa
1aaaad

#2302
0aaaaa

#2305
1aaaaa
0aaaad

#2307
0aaaaa

#2310
1aaaaa
1aaaac

#2312
0aaaaa

#2315
1aaaaa
0aaaac
b10 aaaae

#2317
0aaaaa

#2320
1aaaaa
b11 aaaae

#2322
0aaaaa

#2325
1aaaaa
1aaaad

#2327
0aaaaa

#2330
1aaaaa
0aaaad

#2332
0aaaaa

#2335
1aaaaa
1aaaac

#2337
0aaaaa

#2340
1aaaaa
0aaaac
b100 aaaae

#2342
0aaaaa

#2345
1aaaaa
b101 aaaae

#2347
0aaaaa

#2350
1aaaaa
1aaaad

#2352
0aaaaa

#2355
1aaaaa
0aaaad

#2357
0aaaaa

#2360
1aaaaa
1aaaac

#2362
0aaaaa

#2365
1aaaaa
0aaaac
b110 aaaae

#2367
0aaaaa

#2370
1aaaaa
b111 aaaae

#2372
0aaaaa

#2375
1aaaaa
1aaaad

#2377
0aaaaa

#2380
1aaaaa
0aaaad

#2382
0aaaaa

#2385
1aaaaa
1aaaac

#2387
0aaaaa

#2390
1aaaaa
0aaaac
b1000 aaaae

#2392
0aaaaa

#2395
1aaaaa
b1001 aaaae

#2397
0aaaaa

#2400
1aaaaa
1aaaad

#2402
0aaaaa

#2405
1aaaaa
0aaaad

#2407
0aaaaa

#2410
1aaaaa
1aaaac

#2412
0aaaaa

#2415
1aaaaa
0aaaac
b1010 aaaae

#2417
0aaaaa

#2420
1aaaaa
b1011 aaaae

#2422
0aaaaa

#2425
1aaaaa
1aaaad

#2427
0aaaaa

#2430
1aaaaa
0aaaad

#2432
0aaaaa

#2435
1aaaaa
1aaaac

#2437
0aaaaa

#2440
1aaaaa
0aaaac
b1100 aaaae

#2442
0aaaaa

#2445
1aaaaa
b1101 aaaae

#2447
0aaaaa

#2450
1aaaaa
1aaaad

#2452
0aaaaa

#2455
1aaaaa
0aaaad

#2457
0aaaaa

#2460
1aaaaa
1aaaac

#2462
0aaaaa

#2465
1aaaaa
0aaaac
b1110 aaaae

#2467
0aaaaa

#2470
1aaaaa
b1111 aaaae

#2472
0aaaaa

#2475
1aaaaa
1aaaad

#2477
0aaaaa

#2480
1aaaaa
0aaaad

#2482
0aaaaa

#2485
1aaaaa
1aaaac

#2487
0aaaaa

