Sem4/Microelectronics/Labs/Lab12/src/lab1.vcd
$date
     May 21, 2025       15:25:52
$end

$version
 SystemC 2.3.3-Accellera --- Apr 29 2025 14:23:28
$end

$timescale
     1 ns
$end

$scope module SystemC $end
$var wire    1  aaaaa  clk       $end
$var wire    1  aaaab  reset       $end
$var wire    1  aaaac  sync       $end
$var wire    4  aaaad  count [3:0]  $end
$var wire    1  aaaae  impulses       $end
$upscope $end
$enddefinitions  $end

$comment
All initial values are dumped below at time 0 sec = 0 timescale units.
$end

$dumpvars
1aaaaa
0aaaab
0aaaac
b0 aaaad
0aaaae
$end

#2
0aaaaa

#5
1aaaaa

#7
0aaaaa

#10
1aaaaa

#12
0aaaaa

#15
1aaaaa

#17
0aaaaa

#20
1aaaaa

#22
0aaaaa

#25
1aaaaa

#27
0aaaaa

#30
1aaaaa

#32
0aaaaa

#35
1aaaaa

#37
0aaaaa

#40
1aaaaa

#42
0aaaaa

#45
1aaaaa

#47
0aaaaa

#50
1aaaaa

#52
0aaaaa

#55
1aaaaa

#57
0aaaaa

#60
1aaaaa

#62
0aaaaa

#65
1aaaaa

#67
0aaaaa

#70
1aaaaa

#72
0aaaaa

#75
1aaaaa

#77
0aaaaa

#80
1aaaaa

#82
0aaaaa

#85
1aaaaa

#87
0aaaaa

#90
1aaaaa

#92
0aaaaa

#95
1aaaaa

#97
0aaaaa

#100
1aaaaa

#102
0aaaaa

#105
1aaaaa

#107
0aaaaa

#110
1aaaaa

#112
0aaaaa

#115
1aaaaa

#117
0aaaaa

#120
1aaaaa

#122
0aaaaa

#125
1aaaaa

#127
0aaaaa

#130
1aaaaa

#132
0aaaaa

#135
1aaaaa

#137
0aaaaa

#140
1aaaaa

#142
0aaaaa

#145
1aaaaa

#147
0aaaaa

#150
1aaaaa

#152
0aaaaa

#155
1aaaaa

#157
0aaaaa

#160
1aaaaa

#162
0aaaaa

#165
1aaaaa

#167
0aaaaa

#170
1aaaaa

#172
0aaaaa

#175
1aaaaa

#177
0aaaaa

#180
1aaaaa

#182
0aaaaa

#185
1aaaaa

#187
0aaaaa

#190
1aaaaa

#192
0aaaaa

#195
1aaaaa

#197
0aaaaa

#200
1aaaaa

#202
0aaaaa

#205
1aaaaa
1aaaac
b1111 aaaad

#207
0aaaaa

#210
1aaaaa
0aaaac
1aaaae

#212
0aaaaa

#215
1aaaaa
0aaaae

#217
0aaaaa

#220
1aaaaa
1aaaae

#222
0aaaaa

#225
1aaaaa
0aaaae

#227
0aaaaa

#230
1aaaaa
1aaaae

#232
0aaaaa

#235
1aaaaa
0aaaae

#237
0aaaaa

#240
1aaaaa
1aaaae

#242
0aaaaa

#245
1aaaaa
0aaaae

#247
0aaaaa

#250
1aaaaa
1aaaae

#252
0aaaaa

#255
1aaaaa
0aaaae

#257
0aaaaa

#260
1aaaaa
1aaaae

#262
0aaaaa

#265
1aaaaa
0aaaae

#267
0aaaaa

#270
1aaaaa
1aaaae

#272
0aaaaa

#275
1aaaaa
0aaaae

#277
0aaaaa

#280
1aaaaa
1aaaae

#282
0aaaaa

#285
1aaaaa
0aaaae

#287
0aaaaa

#290
1aaaaa
1aaaae

#292
0aaaaa

#295
1aaaaa
0aaaae

#297
0aaaaa

#300
1aaaaa
1aaaae

#302
0aaaaa

#305
1aaaaa
0aaaae

#307
0aaaaa

#310
1aaaaa
1aaaae

#312
0aaaaa

#315
1aaaaa
0aaaae

#317
0aaaaa

#320
1aaaaa
1aaaae

#322
0aaaaa

#325
1aaaaa
0aaaae

#327
0aaaaa

#330
1aaaaa
1aaaae

#332
0aaaaa

#335
1aaaaa
0aaaae

#337
0aaaaa

#340
1aaaaa
1aaaae

#342
0aaaaa

#345
1aaaaa
0aaaae

#347
0aaaaa

#350
1aaaaa
1aaaae

#352
0aaaaa

#355
1aaaaa
0aaaae

